[2020-02-10 20:12:44.332] - 6204 信息 [main] --- org.apache.catalina.core.StandardService: Starting service [Tomcat]
[2020-02-10 20:12:44.335] - 6204 信息 [main] --- org.apache.catalina.core.StandardEngine: Starting Servlet engine: [Apache Tomcat/9.0.30]
[2020-02-10 20:12:44.415] - 6204 信息 [main] --- org.apache.catalina.core.ContainerBase.[Tomcat].[localhost].[/]: Initializing Spring embedded WebApplicationContext
